﻿DateTime,DATA 1,DATA 2,DATA 3,DATA 4
20211220 101010.000,30,100,124,197
20211220 101010.010,40,110,134,65
20211220 101010.020,50,140,214,149
20211220 101010.030,60,150,169,-98
20211220 101010.040,70,160,204,-173
20211220 101010.050,80,170,164,-108
20211220 101010.060,90,180,148,150
20211220 101010.070,100,190,180,92
20211220 101010.080,110,200,268,94
20211220 101010.090,120,210,164,-139
20211220 101010.100,130,220,254,-132